{
  "project_info": {
    "project_number": "338993658065",
    "firebase_url": "https://mcflp2nd.firebaseio.com",
    "project_id": "mcflp2nd",
    "storage_bucket": "mcflp2nd.appspot.com"
  },
  "client": [
    {
      "client_info": {
        "mobilesdk_app_id": "1:338993658065:android:42de6bdebfdcef26",
        "android_client_info": {
          "package_name": "com.bit.bitcare.mcflp2nd"
        }
      },
      "oauth_client": [
        {
          "client_id": "338993658065-skkqancjkerdgn7dnd6am1k1lk8brod1.apps.googleusercontent.com",
          "client_type": 1,
          "android_info": {
            "package_name": "com.bit.bitcare.mcflp2nd",
            "certificate_hash": "9b11f33a5f3567c363eb046bd8d77800414d0403"
          }
        },
        {
          "client_id": "338993658065-tnehs53n56tvn5ih8thd3g3eeosq2jdu.apps.googleusercontent.com",
          "client_type": 3
        }
      ],
      "api_key": [
        {
          "current_key": "AIzaSyD7VbtvFamT685L5vzYx_spsdx_B86-jW4"
        }
      ],
      "services": {
        "analytics_service": {
          "status": 1
        },
        "appinvite_service": {
          "status": 2,
          "other_platform_oauth_client": [
            {
              "client_id": "338993658065-tnehs53n56tvn5ih8thd3g3eeosq2jdu.apps.googleusercontent.com",
              "client_type": 3
            },
            {
              "client_id": "338993658065-co1rjua3595uc31qodsvq6qblgf02v88.apps.googleusercontent.com",
              "client_type": 2,
              "ios_info": {
                "bundle_id": "com.bit.bitcare.ios.mcflp2nd.sign",
                "app_store_id": "1441379594"
              }
            }
          ]
        },
        "ads_service": {
          "status": 2
        }
      }
    },
    {
      "client_info": {
        "mobilesdk_app_id": "1:338993658065:android:f60c736e7a1cfc03",
        "android_client_info": {
          "package_name": "com.bit.bitcare.mcflp2nd.demo"
        }
      },
      "oauth_client": [
        {
          "client_id": "338993658065-tnehs53n56tvn5ih8thd3g3eeosq2jdu.apps.googleusercontent.com",
          "client_type": 3
        }
      ],
      "api_key": [
        {
          "current_key": "AIzaSyD7VbtvFamT685L5vzYx_spsdx_B86-jW4"
        }
      ],
      "services": {
        "analytics_service": {
          "status": 1
        },
        "appinvite_service": {
          "status": 1,
          "other_platform_oauth_client": []
        },
        "ads_service": {
          "status": 2
        }
      }
    },
    {
      "client_info": {
        "mobilesdk_app_id": "1:338993658065:android:ef7a9c8d00b06bf1",
        "android_client_info": {
          "package_name": "com.bit.bitcare.mcflp2nd.sign"
        }
      },
      "oauth_client": [
        {
          "client_id": "338993658065-m1f043ra3b27le63qoitar2rj9vi9hd3.apps.googleusercontent.com",
          "client_type": 1,
          "android_info": {
            "package_name": "com.bit.bitcare.mcflp2nd.sign",
            "certificate_hash": "a90edda4cb118971a26da543df014106732a59bd"
          }
        },
        {
          "client_id": "338993658065-tnehs53n56tvn5ih8thd3g3eeosq2jdu.apps.googleusercontent.com",
          "client_type": 3
        }
      ],
      "api_key": [
        {
          "current_key": "AIzaSyD7VbtvFamT685L5vzYx_spsdx_B86-jW4"
        }
      ],
      "services": {
        "analytics_service": {
          "status": 1
        },
        "appinvite_service": {
          "status": 2,
          "other_platform_oauth_client": [
            {
              "client_id": "338993658065-tnehs53n56tvn5ih8thd3g3eeosq2jdu.apps.googleusercontent.com",
              "client_type": 3
            },
            {
              "client_id": "338993658065-co1rjua3595uc31qodsvq6qblgf02v88.apps.googleusercontent.com",
              "client_type": 2,
              "ios_info": {
                "bundle_id": "com.bit.bitcare.ios.mcflp2nd.sign",
                "app_store_id": "1441379594"
              }
            }
          ]
        },
        "ads_service": {
          "status": 2
        }
      }
    }
  ],
  "configuration_version": "1"
}